{
  "name": "",
  "description": "",
  "url": "",
  "logo": "",
  "structure": "",
  "status": "",
  "servers": [ "" ],
  "economic_model": [ "" ],
  "public": [ "" ],
  "creation_date": "",
  "address": "",
  "perimeter": "",
  "metadata": { },
  "services": [
    {
      "type": "",
      "description": "",
      "url": "",
      "software": "",
      "account": "",
      "public": "",
      "price": "",
      "degradability": 0,
      "maintained_till": "",
      "weight": 0,
      "metadata": { }
    }
  ]
}
